[gd_scene load_steps=2 format=3 uid="uid://d1tfomv6frbcm"]

[ext_resource type="Script" path="res://scripts/start_menu.gd" id="1_c3lgt"]

[node name="StartMenu" type="CanvasLayer"]
process_mode = 3
script = ExtResource("1_c3lgt")

[node name="BoxContainer" type="BoxContainer" parent="."]
anchors_preset = 15
anchor_right = 1.0
anchor_bottom = 1.0
grow_horizontal = 2
grow_vertical = 2
alignment = 2
vertical = true

[node name="MarginContainer" type="MarginContainer" parent="BoxContainer"]
layout_mode = 2
theme_override_constants/margin_left = 32
theme_override_constants/margin_top = 32
theme_override_constants/margin_right = 32
theme_override_constants/margin_bottom = 32

[node name="HBoxContainer" type="VBoxContainer" parent="BoxContainer/MarginContainer"]
custom_minimum_size = Vector2(500, 0)
layout_mode = 2
size_flags_horizontal = 4
theme_override_constants/separation = 16

[node name="StartButton" type="Button" parent="BoxContainer/MarginContainer/HBoxContainer"]
layout_mode = 2
text = "START"

[node name="QuitButton" type="Button" parent="BoxContainer/MarginContainer/HBoxContainer"]
layout_mode = 2
text = "QUIT
"

[connection signal="pressed" from="BoxContainer/MarginContainer/HBoxContainer/StartButton" to="." method="_on_start_button_pressed"]
[connection signal="pressed" from="BoxContainer/MarginContainer/HBoxContainer/QuitButton" to="." method="_on_quit_button_pressed"]
